  0 KSP Residual norm 1541.79 
  1 KSP Residual norm 457.503 
  2 KSP Residual norm 179.338 
  3 KSP Residual norm 48.8123 
  4 KSP Residual norm 24.3473 
  5 KSP Residual norm 8.61576 
  6 KSP Residual norm 3.02445 
  7 KSP Residual norm 1.24469 
  8 KSP Residual norm 0.355207 
  9 KSP Residual norm 0.0901111 
 10 KSP Residual norm 0.0203777 
 11 KSP Residual norm 0.00480023 
Linear solve converged due to CONVERGED_RTOL iterations 11
KSP Object: 8 MPI processes
  type: cg
  maximum iterations=10000, initial guess is zero
  tolerances:  relative=1e-05, absolute=1e-50, divergence=10000.
  left preconditioning
  using PRECONDITIONED norm type for convergence test
PC Object: 8 MPI processes
  type: gamg
    MG: type is MULTIPLICATIVE, levels=3 cycles=v
      Cycles per PCApply=1
      Using externally compute Galerkin coarse grid matrices
      GAMG specific options
        Threshold for dropping small values from graph -0.01
        Using aggregates from coarsening process to define subdomains for PCASM
        Using parallel coarse grid solver (all coarse grid equations not put on one process)
        AGG specific options
          Symmetric graph false
          Number of levels to square graph 1
          Number smoothing steps 1
  Coarse grid solver -- level -------------------------------
    KSP Object: (mg_coarse_) 8 MPI processes
      type: cg
      maximum iterations=10000, initial guess is zero
      tolerances:  relative=1e-05, absolute=1e-50, divergence=10000.
      left preconditioning
      using PRECONDITIONED norm type for convergence test
    PC Object: (mg_coarse_) 8 MPI processes
      type: jacobi
      linear system matrix = precond matrix:
      Mat Object: 8 MPI processes
        type: mpiaij
        rows=60, cols=60, bs=6
        total: nonzeros=3600, allocated nonzeros=3600
        total number of mallocs used during MatSetValues calls =0
          using I-node (on process 0) routines: found 6 nodes, limit used is 5
  Down solver (pre-smoother) on level 1 -------------------------------
    KSP Object: (mg_levels_1_) 8 MPI processes
      type: chebyshev
        Chebyshev: eigenvalue estimates:  min = 0.364053, max = 1.91128
        Chebyshev: eigenvalues estimated using cg with translations  [0. 0.2; 0. 1.05]
        KSP Object: (mg_levels_1_esteig_) 8 MPI processes
          type: cg
          maximum iterations=10, initial guess is zero
          tolerances:  relative=1e-12, absolute=1e-50, divergence=10000.
          left preconditioning
          using PRECONDITIONED norm type for convergence test
        Chebyshev: estimating eigenvalues using noisy right hand side
      maximum iterations=1
      tolerances:  relative=1e-05, absolute=1e-50, divergence=10000.
      left preconditioning
      using nonzero initial guess
      using NONE norm type for convergence test
    PC Object: (mg_levels_1_) 8 MPI processes
      type: asm
        Additive Schwarz: total subdomain blocks = 10, amount of overlap = 0
        Additive Schwarz: restriction/interpolation type - BASIC
        Local solve is same for all blocks, in the following KSP and PC objects:
      KSP Object: (mg_levels_1_sub_) 1 MPI processes
        type: preonly
        maximum iterations=10000, initial guess is zero
        tolerances:  relative=1e-05, absolute=1e-50, divergence=10000.
        left preconditioning
        using NONE norm type for convergence test
      PC Object: (mg_levels_1_sub_) 1 MPI processes
        type: lu
          LU: out-of-place factorization
          tolerance for zero pivot 2.22045e-14
          matrix ordering: nd
          factor fill ratio given 5., needed 1.
            Factored matrix follows:
              Mat Object: 1 MPI processes
                type: seqaij
                rows=30, cols=30
                package used to perform factorization: petsc
                total: nonzeros=900, allocated nonzeros=900
                total number of mallocs used during MatSetValues calls =0
                  using I-node routines: found 6 nodes, limit used is 5
        linear system matrix = precond matrix:
        Mat Object: 1 MPI processes
          type: seqaij
          rows=30, cols=30
          total: nonzeros=900, allocated nonzeros=900
          total number of mallocs used during MatSetValues calls =0
            using I-node routines: found 6 nodes, limit used is 5
      linear system matrix = precond matrix:
      Mat Object: 8 MPI processes
        type: mpiaij
        rows=474, cols=474, bs=6
        total: nonzeros=64476, allocated nonzeros=64476
        total number of mallocs used during MatSetValues calls =0
          using I-node (on process 0) routines: found 10 nodes, limit used is 5
  Up solver (post-smoother) same as down solver (pre-smoother)
  Down solver (pre-smoother) on level 2 -------------------------------
    KSP Object: (mg_levels_2_) 8 MPI processes
      type: chebyshev
        Chebyshev: eigenvalue estimates:  min = 0.386231, max = 2.02771
        Chebyshev: eigenvalues estimated using cg with translations  [0. 0.2; 0. 1.05]
        KSP Object: (mg_levels_2_esteig_) 8 MPI processes
          type: cg
          maximum iterations=10, initial guess is zero
          tolerances:  relative=1e-12, absolute=1e-50, divergence=10000.
          left preconditioning
          using PRECONDITIONED norm type for convergence test
        Chebyshev: estimating eigenvalues using noisy right hand side
      maximum iterations=1
      tolerances:  relative=1e-05, absolute=1e-50, divergence=10000.
      left preconditioning
      using nonzero initial guess
      using NONE norm type for convergence test
    PC Object: (mg_levels_2_) 8 MPI processes
      type: asm
        Additive Schwarz: total subdomain blocks = 79, amount of overlap = 0
        Additive Schwarz: restriction/interpolation type - BASIC
        Local solve is same for all blocks, in the following KSP and PC objects:
      KSP Object: (mg_levels_2_sub_) 1 MPI processes
        type: preonly
        maximum iterations=10000, initial guess is zero
        tolerances:  relative=1e-05, absolute=1e-50, divergence=10000.
        left preconditioning
        using NONE norm type for convergence test
      PC Object: (mg_levels_2_sub_) 1 MPI processes
        type: lu
          LU: out-of-place factorization
          tolerance for zero pivot 2.22045e-14
          matrix ordering: nd
          factor fill ratio given 5., needed 1.05263
            Factored matrix follows:
              Mat Object: 1 MPI processes
                type: seqaij
                rows=48, cols=48
                package used to perform factorization: petsc
                total: nonzeros=1440, allocated nonzeros=1440
                total number of mallocs used during MatSetValues calls =0
                  using I-node routines: found 14 nodes, limit used is 5
        linear system matrix = precond matrix:
        Mat Object: 1 MPI processes
          type: seqaij
          rows=48, cols=48
          total: nonzeros=1368, allocated nonzeros=1368
          total number of mallocs used during MatSetValues calls =0
            using I-node routines: found 16 nodes, limit used is 5
      linear system matrix = precond matrix:
      Mat Object: 8 MPI processes
        type: mpiaij
        rows=8232, cols=8232, bs=3
        total: nonzeros=576000, allocated nonzeros=666792
        total number of mallocs used during MatSetValues calls =0
          has attached near null space
          using I-node (on process 0) routines: found 343 nodes, limit used is 5
  Up solver (post-smoother) same as down solver (pre-smoother)
  linear system matrix = precond matrix:
  Mat Object: 8 MPI processes
    type: mpiaij
    rows=8232, cols=8232, bs=3
    total: nonzeros=576000, allocated nonzeros=666792
    total number of mallocs used during MatSetValues calls =0
      has attached near null space
      using I-node (on process 0) routines: found 343 nodes, limit used is 5
  0 KSP Residual norm 0.0154179 
  1 KSP Residual norm 0.00457503 
  2 KSP Residual norm 0.00179338 
  3 KSP Residual norm 0.000488123 
  4 KSP Residual norm 0.000243473 
  5 KSP Residual norm 8.61576e-05 
  6 KSP Residual norm 3.02445e-05 
  7 KSP Residual norm 1.24469e-05 
  8 KSP Residual norm 3.55207e-06 
  9 KSP Residual norm 9.01111e-07 
 10 KSP Residual norm 2.03777e-07 
 11 KSP Residual norm 4.80023e-08 
Linear solve converged due to CONVERGED_RTOL iterations 11
KSP Object: 8 MPI processes
  type: cg
  maximum iterations=10000, initial guess is zero
  tolerances:  relative=1e-05, absolute=1e-50, divergence=10000.
  left preconditioning
  using PRECONDITIONED norm type for convergence test
PC Object: 8 MPI processes
  type: gamg
    MG: type is MULTIPLICATIVE, levels=3 cycles=v
      Cycles per PCApply=1
      Using externally compute Galerkin coarse grid matrices
      GAMG specific options
        Threshold for dropping small values from graph -0.01
        Using aggregates from coarsening process to define subdomains for PCASM
        Using parallel coarse grid solver (all coarse grid equations not put on one process)
        AGG specific options
          Symmetric graph false
          Number of levels to square graph 1
          Number smoothing steps 1
  Coarse grid solver -- level -------------------------------
    KSP Object: (mg_coarse_) 8 MPI processes
      type: cg
      maximum iterations=10000, initial guess is zero
      tolerances:  relative=1e-05, absolute=1e-50, divergence=10000.
      left preconditioning
      using PRECONDITIONED norm type for convergence test
    PC Object: (mg_coarse_) 8 MPI processes
      type: jacobi
      linear system matrix = precond matrix:
      Mat Object: 8 MPI processes
        type: mpiaij
        rows=60, cols=60, bs=6
        total: nonzeros=3600, allocated nonzeros=3600
        total number of mallocs used during MatSetValues calls =0
          using I-node (on process 0) routines: found 6 nodes, limit used is 5
  Down solver (pre-smoother) on level 1 -------------------------------
    KSP Object: (mg_levels_1_) 8 MPI processes
      type: chebyshev
        Chebyshev: eigenvalue estimates:  min = 0.364053, max = 1.91128
        Chebyshev: eigenvalues estimated using cg with translations  [0. 0.2; 0. 1.05]
        KSP Object: (mg_levels_1_esteig_) 8 MPI processes
          type: cg
          maximum iterations=10, initial guess is zero
          tolerances:  relative=1e-12, absolute=1e-50, divergence=10000.
          left preconditioning
          using PRECONDITIONED norm type for convergence test
        Chebyshev: estimating eigenvalues using noisy right hand side
      maximum iterations=1
      tolerances:  relative=1e-05, absolute=1e-50, divergence=10000.
      left preconditioning
      using nonzero initial guess
      using NONE norm type for convergence test
    PC Object: (mg_levels_1_) 8 MPI processes
      type: asm
        Additive Schwarz: total subdomain blocks = 10, amount of overlap = 0
        Additive Schwarz: restriction/interpolation type - BASIC
        Local solve is same for all blocks, in the following KSP and PC objects:
      KSP Object: (mg_levels_1_sub_) 1 MPI processes
        type: preonly
        maximum iterations=10000, initial guess is zero
        tolerances:  relative=1e-05, absolute=1e-50, divergence=10000.
        left preconditioning
        using NONE norm type for convergence test
      PC Object: (mg_levels_1_sub_) 1 MPI processes
        type: lu
          LU: out-of-place factorization
          tolerance for zero pivot 2.22045e-14
          matrix ordering: nd
          factor fill ratio given 5., needed 1.
            Factored matrix follows:
              Mat Object: 1 MPI processes
                type: seqaij
                rows=30, cols=30
                package used to perform factorization: petsc
                total: nonzeros=900, allocated nonzeros=900
                total number of mallocs used during MatSetValues calls =0
                  using I-node routines: found 6 nodes, limit used is 5
        linear system matrix = precond matrix:
        Mat Object: 1 MPI processes
          type: seqaij
          rows=30, cols=30
          total: nonzeros=900, allocated nonzeros=900
          total number of mallocs used during MatSetValues calls =0
            using I-node routines: found 6 nodes, limit used is 5
      linear system matrix = precond matrix:
      Mat Object: 8 MPI processes
        type: mpiaij
        rows=474, cols=474, bs=6
        total: nonzeros=64476, allocated nonzeros=64476
        total number of mallocs used during MatSetValues calls =0
          using I-node (on process 0) routines: found 10 nodes, limit used is 5
  Up solver (post-smoother) same as down solver (pre-smoother)
  Down solver (pre-smoother) on level 2 -------------------------------
    KSP Object: (mg_levels_2_) 8 MPI processes
      type: chebyshev
        Chebyshev: eigenvalue estimates:  min = 0.386231, max = 2.02771
        Chebyshev: eigenvalues estimated using cg with translations  [0. 0.2; 0. 1.05]
        KSP Object: (mg_levels_2_esteig_) 8 MPI processes
          type: cg
          maximum iterations=10, initial guess is zero
          tolerances:  relative=1e-12, absolute=1e-50, divergence=10000.
          left preconditioning
          using PRECONDITIONED norm type for convergence test
        Chebyshev: estimating eigenvalues using noisy right hand side
      maximum iterations=1
      tolerances:  relative=1e-05, absolute=1e-50, divergence=10000.
      left preconditioning
      using nonzero initial guess
      using NONE norm type for convergence test
    PC Object: (mg_levels_2_) 8 MPI processes
      type: asm
        Additive Schwarz: total subdomain blocks = 79, amount of overlap = 0
        Additive Schwarz: restriction/interpolation type - BASIC
        Local solve is same for all blocks, in the following KSP and PC objects:
      KSP Object: (mg_levels_2_sub_) 1 MPI processes
        type: preonly
        maximum iterations=10000, initial guess is zero
        tolerances:  relative=1e-05, absolute=1e-50, divergence=10000.
        left preconditioning
        using NONE norm type for convergence test
      PC Object: (mg_levels_2_sub_) 1 MPI processes
        type: lu
          LU: out-of-place factorization
          tolerance for zero pivot 2.22045e-14
          matrix ordering: nd
          factor fill ratio given 5., needed 1.05263
            Factored matrix follows:
              Mat Object: 1 MPI processes
                type: seqaij
                rows=48, cols=48
                package used to perform factorization: petsc
                total: nonzeros=1440, allocated nonzeros=1440
                total number of mallocs used during MatSetValues calls =0
                  using I-node routines: found 14 nodes, limit used is 5
        linear system matrix = precond matrix:
        Mat Object: 1 MPI processes
          type: seqaij
          rows=48, cols=48
          total: nonzeros=1368, allocated nonzeros=1368
          total number of mallocs used during MatSetValues calls =0
            using I-node routines: found 16 nodes, limit used is 5
      linear system matrix = precond matrix:
      Mat Object: 8 MPI processes
        type: mpiaij
        rows=8232, cols=8232, bs=3
        total: nonzeros=576000, allocated nonzeros=666792
        total number of mallocs used during MatSetValues calls =0
          has attached near null space
          using I-node (on process 0) routines: found 343 nodes, limit used is 5
  Up solver (post-smoother) same as down solver (pre-smoother)
  linear system matrix = precond matrix:
  Mat Object: 8 MPI processes
    type: mpiaij
    rows=8232, cols=8232, bs=3
    total: nonzeros=576000, allocated nonzeros=666792
    total number of mallocs used during MatSetValues calls =0
      has attached near null space
      using I-node (on process 0) routines: found 343 nodes, limit used is 5
  0 KSP Residual norm 0.0154179 
  1 KSP Residual norm 0.00457503 
  2 KSP Residual norm 0.00179338 
  3 KSP Residual norm 0.000488123 
  4 KSP Residual norm 0.000243473 
  5 KSP Residual norm 8.61576e-05 
  6 KSP Residual norm 3.02445e-05 
  7 KSP Residual norm 1.24469e-05 
  8 KSP Residual norm 3.55207e-06 
  9 KSP Residual norm 9.01111e-07 
 10 KSP Residual norm 2.03777e-07 
 11 KSP Residual norm 4.80023e-08 
Linear solve converged due to CONVERGED_RTOL iterations 11
KSP Object: 8 MPI processes
  type: cg
  maximum iterations=10000, initial guess is zero
  tolerances:  relative=1e-05, absolute=1e-50, divergence=10000.
  left preconditioning
  using PRECONDITIONED norm type for convergence test
PC Object: 8 MPI processes
  type: gamg
    MG: type is MULTIPLICATIVE, levels=3 cycles=v
      Cycles per PCApply=1
      Using externally compute Galerkin coarse grid matrices
      GAMG specific options
        Threshold for dropping small values from graph -0.01
        Using aggregates from coarsening process to define subdomains for PCASM
        Using parallel coarse grid solver (all coarse grid equations not put on one process)
        AGG specific options
          Symmetric graph false
          Number of levels to square graph 1
          Number smoothing steps 1
  Coarse grid solver -- level -------------------------------
    KSP Object: (mg_coarse_) 8 MPI processes
      type: cg
      maximum iterations=10000, initial guess is zero
      tolerances:  relative=1e-05, absolute=1e-50, divergence=10000.
      left preconditioning
      using PRECONDITIONED norm type for convergence test
    PC Object: (mg_coarse_) 8 MPI processes
      type: jacobi
      linear system matrix = precond matrix:
      Mat Object: 8 MPI processes
        type: mpiaij
        rows=60, cols=60, bs=6
        total: nonzeros=3600, allocated nonzeros=3600
        total number of mallocs used during MatSetValues calls =0
          using I-node (on process 0) routines: found 6 nodes, limit used is 5
  Down solver (pre-smoother) on level 1 -------------------------------
    KSP Object: (mg_levels_1_) 8 MPI processes
      type: chebyshev
        Chebyshev: eigenvalue estimates:  min = 0.364053, max = 1.91128
        Chebyshev: eigenvalues estimated using cg with translations  [0. 0.2; 0. 1.05]
        KSP Object: (mg_levels_1_esteig_) 8 MPI processes
          type: cg
          maximum iterations=10, initial guess is zero
          tolerances:  relative=1e-12, absolute=1e-50, divergence=10000.
          left preconditioning
          using PRECONDITIONED norm type for convergence test
        Chebyshev: estimating eigenvalues using noisy right hand side
      maximum iterations=1
      tolerances:  relative=1e-05, absolute=1e-50, divergence=10000.
      left preconditioning
      using nonzero initial guess
      using NONE norm type for convergence test
    PC Object: (mg_levels_1_) 8 MPI processes
      type: asm
        Additive Schwarz: total subdomain blocks = 10, amount of overlap = 0
        Additive Schwarz: restriction/interpolation type - BASIC
        Local solve is same for all blocks, in the following KSP and PC objects:
      KSP Object: (mg_levels_1_sub_) 1 MPI processes
        type: preonly
        maximum iterations=10000, initial guess is zero
        tolerances:  relative=1e-05, absolute=1e-50, divergence=10000.
        left preconditioning
        using NONE norm type for convergence test
      PC Object: (mg_levels_1_sub_) 1 MPI processes
        type: lu
          LU: out-of-place factorization
          tolerance for zero pivot 2.22045e-14
          matrix ordering: nd
          factor fill ratio given 5., needed 1.
            Factored matrix follows:
              Mat Object: 1 MPI processes
                type: seqaij
                rows=30, cols=30
                package used to perform factorization: petsc
                total: nonzeros=900, allocated nonzeros=900
                total number of mallocs used during MatSetValues calls =0
                  using I-node routines: found 6 nodes, limit used is 5
        linear system matrix = precond matrix:
        Mat Object: 1 MPI processes
          type: seqaij
          rows=30, cols=30
          total: nonzeros=900, allocated nonzeros=900
          total number of mallocs used during MatSetValues calls =0
            using I-node routines: found 6 nodes, limit used is 5
      linear system matrix = precond matrix:
      Mat Object: 8 MPI processes
        type: mpiaij
        rows=474, cols=474, bs=6
        total: nonzeros=64476, allocated nonzeros=64476
        total number of mallocs used during MatSetValues calls =0
          using I-node (on process 0) routines: found 10 nodes, limit used is 5
  Up solver (post-smoother) same as down solver (pre-smoother)
  Down solver (pre-smoother) on level 2 -------------------------------
    KSP Object: (mg_levels_2_) 8 MPI processes
      type: chebyshev
        Chebyshev: eigenvalue estimates:  min = 0.386231, max = 2.02771
        Chebyshev: eigenvalues estimated using cg with translations  [0. 0.2; 0. 1.05]
        KSP Object: (mg_levels_2_esteig_) 8 MPI processes
          type: cg
          maximum iterations=10, initial guess is zero
          tolerances:  relative=1e-12, absolute=1e-50, divergence=10000.
          left preconditioning
          using PRECONDITIONED norm type for convergence test
        Chebyshev: estimating eigenvalues using noisy right hand side
      maximum iterations=1
      tolerances:  relative=1e-05, absolute=1e-50, divergence=10000.
      left preconditioning
      using nonzero initial guess
      using NONE norm type for convergence test
    PC Object: (mg_levels_2_) 8 MPI processes
      type: asm
        Additive Schwarz: total subdomain blocks = 79, amount of overlap = 0
        Additive Schwarz: restriction/interpolation type - BASIC
        Local solve is same for all blocks, in the following KSP and PC objects:
      KSP Object: (mg_levels_2_sub_) 1 MPI processes
        type: preonly
        maximum iterations=10000, initial guess is zero
        tolerances:  relative=1e-05, absolute=1e-50, divergence=10000.
        left preconditioning
        using NONE norm type for convergence test
      PC Object: (mg_levels_2_sub_) 1 MPI processes
        type: lu
          LU: out-of-place factorization
          tolerance for zero pivot 2.22045e-14
          matrix ordering: nd
          factor fill ratio given 5., needed 1.05263
            Factored matrix follows:
              Mat Object: 1 MPI processes
                type: seqaij
                rows=48, cols=48
                package used to perform factorization: petsc
                total: nonzeros=1440, allocated nonzeros=1440
                total number of mallocs used during MatSetValues calls =0
                  using I-node routines: found 14 nodes, limit used is 5
        linear system matrix = precond matrix:
        Mat Object: 1 MPI processes
          type: seqaij
          rows=48, cols=48
          total: nonzeros=1368, allocated nonzeros=1368
          total number of mallocs used during MatSetValues calls =0
            using I-node routines: found 16 nodes, limit used is 5
      linear system matrix = precond matrix:
      Mat Object: 8 MPI processes
        type: mpiaij
        rows=8232, cols=8232, bs=3
        total: nonzeros=576000, allocated nonzeros=666792
        total number of mallocs used during MatSetValues calls =0
          has attached near null space
          using I-node (on process 0) routines: found 343 nodes, limit used is 5
  Up solver (post-smoother) same as down solver (pre-smoother)
  linear system matrix = precond matrix:
  Mat Object: 8 MPI processes
    type: mpiaij
    rows=8232, cols=8232, bs=3
    total: nonzeros=576000, allocated nonzeros=666792
    total number of mallocs used during MatSetValues calls =0
      has attached near null space
      using I-node (on process 0) routines: found 343 nodes, limit used is 5
[0]main |b-Ax|/|b|=5.331629e-05, |b|=4.630910e+00, emax=9.960830e-01
